%FSLAX26Y26*%
%MOIN*%
%TF.FileFunction,Plated,1,8,PTH*%
%TF.Part,Single*%
%LPD*%
%TA.DrillTolerance,0.002,0.001*%
%TA.AperFunction,ComponentDrill%
%ADD10C,0.014000*%
%TA.AperFunction,Other,SpecialDrill*%
%ADD11C,0.024000*%
%TA.DrillTolerance,0.015,0.015*%
%TA.AperFunction,MechanicalDrill*%
%ADD12C,0.043000*%
%ADD13C,0.022000*%
%TD.AperFunction*%
%TD.DrillTolerance*%
G01*
D10*
X242000Y275000D03*
Y325000D03*
X217000Y300000D03*
X192000Y325000D03*
X292000Y275000D03*
X192000D03*
X292000Y325000D03*
X267000Y300000D03*
D11*
X124000Y0D03*
X0Y-124000D03*
X-124000Y0D03*
X88000Y88000D03*
X-88000D03*
X0Y124000D03*
X88000Y-88000D03*
X-88000D03*
D12*
X792000Y350000D03*
X492000Y-350000D03*
D13*
X767000Y-600000D03*
X567000D03*
X-233000Y200000D03*
Y400000D03*
Y0D03*
Y-200000D03*
Y-600000D03*
Y-400000D03*
X-33000Y-600000D03*
X167000D03*
X367000D03*
%TF.MD5,b5d8122723797ac635a1814c04c6372b%
M02*
